4 Fitting basics | Data Modeling
…
The parameter sigma is an estimate of the standard deviation of the residual distribution, which is assumed to be normal with mean 0. The MAD_SD column is the scaled median absolute deviation, which provides a robust measure of variation of the parameter distributions.

An advantage of Bayesian modeling is that it provides estimates not just of the values of the parameters, but also an estimate of their joint distribution through simulations. Here’s how you can access these simulations.

sims <-  
  as.data.frame(fit_stan_glm) %>% 
  as_tibble()

By default, stan_glm() performs 4000 simulations from the joint distribution of parameters.

sims
#> # A tibble: 4,000 × 3
#>   `(Intercept)` `log(carat)` sigma
#>           <dbl>        <dbl> <dbl>
#> 1          8.46         1.68 0.260
#> 2          8.46         1.69 0.262
#> 3          8.46         1.69 0.262
#> 4          8.46         1.69 0.261
#> 5          8.46         1.69 0.261
#> 6          8.46         1.69 0.261
#> # … with 3,994 more rows
…
The coefficients produced by lm() and stan_glm() are very close.

coef(fit_lm) - coef(fit_stan_glm)
#> (Intercept)  log(carat) 
#>   -4.91e-05   -5.11e-05

4.1.3 Tidymodels

Tidymodels is an ecosystem of R packages for modeling. It provides a common interface to a growing number of model types and engines. And it supports a range of other modeling tasks, such as data preprocessing, resampling, and parameter tuning. You can learn more at Tidy Modeling with R.

Linear regression, the type of model we’ll be using here, is just one of several model types supported by tidymodels. Each type of model supported by tidymodels may have multiple computational engines. Here are the engines currently available for linear regression.

show_engines("linear_reg")
#> # A tibble: 7 × 2
#>   engine mode      
#>   <chr>  <chr>     
#> 1 lm     regression
#> 2 glm    regression
#> 3 glmnet regression
#> 4 stan   regression
#> 5 spark  regression
#> 6 keras  regression
#> # … with 1 more row
…
With no glaring problems with the parameters, we’ll next look at predictions across the full range of carat.

4.2.1 Making predictions

Once you’ve fit a model, you can use the fit to make predictions. Here’s how to use the predict() function to make predictions for the lm() and stan_glm() models.

preds <- 
  tibble(
    carat = seq(min(df$carat), max(df$carat), length.out = 801),
    pred_lm = predict(fit_lm, newdata = tibble(carat)) %>% exp(),
    pred_stan_glm = predict(fit_stan_glm, newdata = tibble(carat)) %>% exp()
  )

preds
#> # A tibble: 801 × 3
#>   carat pred_lm pred_stan_glm
#>   <dbl>   <dbl>         <dbl>
#> 1 0.2      311.          311.
#> 2 0.202    317.          317.
#> 3 0.205    324.          324.
#> 4 0.207    331.          331.
#> 5 0.210    337.          337.
#> 6 0.212    344.          344.
#> # … with 795 more rows
…
When predict() encounters a model of this class, it calls predict.model_fit() from the tidymodels parsnip package. We need to use slightly different arguments to make predictions with this function.

preds <- 
  preds %>% 
  mutate(
    pred_tm_lm = 
      predict(fit_tm_lm, new_data = tibble(carat), type = "raw") %>% exp(),
    pred_tm_stan = 
      predict(fit_tm_stan, new_data = tibble(carat), type = "raw") %>% exp()
  )

preds
#> # A tibble: 801 × 5
#>   carat pred_lm pred_stan_glm pred_tm_lm pred_tm_stan
#>   <dbl>   <dbl>         <dbl>      <dbl>        <dbl>
#> 1 0.2      311.          311.       311.         311.
#> 2 0.202    317.          317.       317.         317.
#> 3 0.205    324.          324.       324.         324.
#> 4 0.207    331.          331.       331.         331.
#> 5 0.210    337.          337.       337.         337.
#> 6 0.212    344.          344.       344.         344.
#> # … with 795 more rows
…
price / predicted price .

If we call the predict() function without specifying new data, it will return the predictions for the dataset used to fit the model.

v <- 
  df %>% 
  select(price, carat) %>% 
  mutate(
    pred = predict(fit_stan_glm) %>% exp(),
    error_ratio = price / pred
  )

v
#> # A tibble: 53,405 × 4
#>   price carat  pred error_ratio
#>   <int> <dbl> <dbl>       <dbl>
#> 1   326  0.23  394.       0.828
#> 2   326  0.21  338.       0.965
#> 3   327  0.23  394.       0.831
#> 4   334  0.29  582.       0.574
#> 5   335  0.31  652.       0.514
#> 6   336  0.24  423.       0.794
#> # … with 53,399 more rows
…
