5 Model evaluation | Data Modeling
…
log(price) ~ log(carat) + clarity + color + cut
19

The n_coefs column contains the number of coefficients or parameters for the function family and ranges from two, for the simplest family we used in last chapter, to 19 for the most complex function family. Each function family in the list includes all of the functions in the function families above it. You might ask, why not just use the most complex function family, since it contains all the functions of the simpler families? We’ll explain why in the next section.

But before we can discuss model evaluation, we need to specify the purpose for our modeling. We will assume that our goal is to create a model using the data we have to make accurate predictions on new data.

5.1 Model overfitting

For this section, we will seek to model blood pressure as a function of age. The data we’ll use are from the National Health and Nutrition Examination Survey (NHANES) 2017-2018 and are in the dcldata package.

blood_pressure
#> # A tibble: 6,144 × 5
#>    seqn ridageyr bpxosy1 bpxosy2 bpxosy3
#>   <dbl>    <dbl>   <dbl>   <dbl>   <dbl>
#> 1 93705       66     164     165     172
#> 2 93706       18     126     128     133
#> 3 93707       13     136     133     139
#> 4 93708       66     146     142     151
#> 5 93709       75     120     124     113
#> 6 93711       56     112     112     109
#> # … with 6,138 more rows
…
bpxosy3: Systolic blood pressure - 3rd oscillometric reading

Since we don’t know the actual age for participants with rigageyr variable equal to 80, we will only consider those age 79 and younger. The blood pressure variable we’ll model will be a new variable bpxosy that is the mean of the three systolic blood pressure measurements.

bp_all <- 
  blood_pressure %>% 
  filter(ridageyr <= 79) %>% 
  rowwise() %>% 
  mutate(bpxosy = mean(c(bpxosy1, bpxosy2, bpxosy3), na.rm = TRUE)) %>% 
  ungroup() %>% 
  select(!matches("bpxosy\\d")) %>% 
  arrange(seqn)

bp_all
#> # A tibble: 5,851 × 3
#>    seqn ridageyr bpxosy
#>   <dbl>    <dbl>  <dbl>
#> 1 93705       66   167 
#> 2 93706       18   129 
#> 3 93707       13   136 
#> 4 93708       66   146.
#> 5 93709       75   119 
#> 6 93711       56   111 
#> # … with 5,845 more rows
…
Bootstrap: The training set is a random sample with replacement of the original data for a resulting set the same size as the original data. The test set is the remaining data. In bootstrap, the proportion of original data used in the training set is approximately 63.2%.

V-Fold: In this method, the original data is randomly partitioned into v disjoint sets of roughly equal size, called folds. The modeling is then done v times with each fold serving as test set and the remaining v - 1 folds serving as the training set. Typical values for v are 5 or 10, corresponding to 80% or 90% of the original data being used for the training set.

With Monte Carlo and bootstrap cross-validation, the train and test process is repeated multiple times with different random partitions. With v-fold cross-validation, the whole process of v repetitions can itself be repeated. In each of the three methods, the results of the repetitions are combined into an average estimate of predictive performance and a standard error.

For our diamonds data, we’ll use v-fold cross-validation with v = 10 folds and just one repeat. The vfold_cv() function in the tidymodels rsample package will do this for us.

set.seed(616)

resamples <- vfold_cv(data = df, v = 10)

resamples
#> #  10-fold cross-validation 
#> # A tibble: 10 × 2
#>   splits               id    
#>   <list>               <chr> 
#> 1 <split [48064/5341]> Fold01
#> 2 <split [48064/5341]> Fold02
#> 3 <split [48064/5341]> Fold03
#> 4 <split [48064/5341]> Fold04
#> 5 <split [48064/5341]> Fold05
#> 6 <split [48065/5340]> Fold06
#> # … with 4 more rows
…
